INDEX VERSION 1.130+S:\FSD 63\Module-2\FOJ\Workspace2\.metadata\.plugins\org.eclipse.jdt.core
3852244655.index
2758576337.index
743109110.index
2194716159.index
2571675751.index
3355708150.index
2782998763.index
2653330038.index
585472926.index
1737575566.index
3312165055.index
1552878334.index
401767567.index
1227306570.index
3566089501.index
4278764599.index
2071462652.index
2256529200.index
2006079928.index
